{"status":true,"source":"HHKUNGFU","items":[{"_id":3512,"name":"Tử Xuyên Phần 2","origin_name":"Zi Chuan 2","slug":"tu-xuyen-phan-2","poster_url":"https://hhkungfu.ee/wp-content/uploads/2025/07/Tu-Xuyen-2-300x450.webp","thumb_url":"https://hhkungfu.ee/wp-content/uploads/2025/07/Tu-Xuyen-2-300x450.webp","quality":"FULL HD 4K","episode_current":"Tập 43/52 [4K]","content":"","type":"series","status":"ongoing","time":"","lang":"Vietsub","category":[],"country":[{"_id":1,"name":"Trung Quốc","slug":"trung-quoc"}],"source":"hhkungfu","source_url":"https://hhkungfu.ee/tu-xuyen-phan-2"},{"_id":8016,"name":"Tiên Kiếm Kỳ Hiệp Truyện 3","origin_name":"Chinese Paladin 3","slug":"tien-kiem-ky-hiep-truyen-3","poster_url":"https://hhkungfu.ee/wp-content/uploads/2025/12/kiemtienkytientruyen3-300x450.webp","thumb_url":"https://hhkungfu.ee/wp-content/uploads/2025/12/kiemtienkytientruyen3-300x450.webp","quality":"Full HD 4K","episode_current":"Tập 23/26 [4K]","content":"","type":"series","status":"ongoing","time":"","lang":"Vietsub","category":[],"country":[{"_id":1,"name":"Trung Quốc","slug":"trung-quoc"}],"source":"hhkungfu","source_url":"https://hhkungfu.ee/tien-kiem-ky-hiep-truyen-3"},{"_id":840,"name":"Già Thiên","origin_name":"Zhe Tian","slug":"gia-thien","poster_url":"https://hhkungfu.ee/wp-content/uploads/2025/03/Gia-Thien-300x450.webp","thumb_url":"https://hhkungfu.ee/wp-content/uploads/2025/03/Gia-Thien-300x450.webp","quality":"FULL HD 4K","episode_current":"Tập 162/208 [4K]","content":"","type":"series","status":"ongoing","time":"","lang":"Vietsub","category":[],"country":[{"_id":1,"name":"Trung Quốc","slug":"trung-quoc"}],"source":"hhkungfu","source_url":"https://hhkungfu.ee/gia-thien"},{"_id":11122,"name":"Sưu Thần Ký","origin_name":"In Search of the Supernatural","slug":"suu-than-ky","poster_url":"https://hhkungfu.ee/wp-content/uploads/2026/03/Suu-Than-Ky-300x450.webp","thumb_url":"https://hhkungfu.ee/wp-content/uploads/2026/03/Suu-Than-Ky-300x450.webp","quality":"Full HD 4K","episode_current":"Tập 10/18 [4K]","content":"","type":"series","status":"ongoing","time":"","lang":"Vietsub","category":[],"country":[{"_id":1,"name":"Trung Quốc","slug":"trung-quoc"}],"source":"hhkungfu","source_url":"https://hhkungfu.ee/suu-than-ky"},{"_id":855,"name":"Sư Huynh À Sư Huynh","origin_name":"Shi Xiong A Shi Xiong","slug":"su-huynh-a-su-huynh","poster_url":"https://hhkungfu.ee/wp-content/uploads/2025/03/Su-Huynh-A-Su-Huynh-300x450.webp","thumb_url":"https://hhkungfu.ee/wp-content/uploads/2025/03/Su-Huynh-A-Su-Huynh-300x450.webp","quality":"FULL HD","episode_current":"Tập 141/143 [4K]","content":"","type":"series","status":"ongoing","time":"","lang":"Vietsub","category":[],"country":[{"_id":1,"name":"Trung Quốc","slug":"trung-quoc"}],"source":"hhkungfu","source_url":"https://hhkungfu.ee/su-huynh-a-su-huynh"},{"_id":12825,"name":"Toàn Chức Pháp Sư Phần 7","origin_name":"Quanzhi Fashi 7","slug":"toan-chuc-phap-su-phan-7","poster_url":"https://hhkungfu.ee/wp-content/uploads/2026/05/Toan-Chuc-Phap-Su-Phan-7-300x450.webp","thumb_url":"https://hhkungfu.ee/wp-content/uploads/2026/05/Toan-Chuc-Phap-Su-Phan-7-300x450.webp","quality":"FULL HD 4K","episode_current":"Tập 2 [4K]","content":"","type":"series","status":"ongoing","time":"","lang":"Vietsub","category":[],"country":[{"_id":1,"name":"Trung Quốc","slug":"trung-quoc"}],"source":"hhkungfu","source_url":"https://hhkungfu.ee/toan-chuc-phap-su-phan-7"},{"_id":12387,"name":"Bàn Long","origin_name":"Coiling Dragon","slug":"ban-long","poster_url":"https://hhkungfu.ee/wp-content/uploads/2026/04/Ban-Long-300x450.webp","thumb_url":"https://hhkungfu.ee/wp-content/uploads/2026/04/Ban-Long-300x450.webp","quality":"Full HD 4K","episode_current":"Tập 5/20 [4K]","content":"","type":"series","status":"ongoing","time":"","lang":"Vietsub","category":[],"country":[{"_id":1,"name":"Trung Quốc","slug":"trung-quoc"}],"source":"hhkungfu","source_url":"https://hhkungfu.ee/ban-long"},{"_id":836,"name":"Thôn Phệ Tinh Không","origin_name":"Swallowed Star","slug":"thon-phe-tinh-khong","poster_url":"https://hhkungfu.ee/wp-content/uploads/2025/03/Thon-Phe-Tinh-Khong-300x450.webp","thumb_url":"https://hhkungfu.ee/wp-content/uploads/2025/03/Thon-Phe-Tinh-Khong-300x450.webp","quality":"FULL HD","episode_current":"Tập 224/260 [4K]","content":"","type":"series","status":"ongoing","time":"","lang":"Vietsub","category":[],"country":[{"_id":1,"name":"Trung Quốc","slug":"trung-quoc"}],"source":"hhkungfu","source_url":"https://hhkungfu.ee/thon-phe-tinh-khong"},{"_id":879,"name":"Bách Luyện Thành Thần","origin_name":"Elevation to the Status of a God","slug":"bach-luyen-thanh-than","poster_url":"https://hhkungfu.ee/wp-content/uploads/2025/03/bach-luyen-thanh-than-3-300x450.webp","thumb_url":"https://hhkungfu.ee/wp-content/uploads/2025/03/bach-luyen-thanh-than-3-300x450.webp","quality":"FULL HD","episode_current":"Tập 129 [4K]","content":"","type":"series","status":"ongoing","time":"","lang":"Vietsub","category":[],"country":[{"_id":1,"name":"Trung Quốc","slug":"trung-quoc"}],"source":"hhkungfu","source_url":"https://hhkungfu.ee/bach-luyen-thanh-than"},{"_id":830,"name":"Vạn Giới Độc Tôn","origin_name":"Wan Jie Du Zun","slug":"van-gioi-doc-ton","poster_url":"https://hhkungfu.ee/wp-content/uploads/2025/03/Van-Gioi-Doc-Ton-300x450.webp","thumb_url":"https://hhkungfu.ee/wp-content/uploads/2025/03/Van-Gioi-Doc-Ton-300x450.webp","quality":"FULL HD","episode_current":"Tập 449/498 [4K]","content":"","type":"series","status":"ongoing","time":"","lang":"Vietsub","category":[],"country":[{"_id":1,"name":"Trung Quốc","slug":"trung-quoc"}],"source":"hhkungfu","source_url":"https://hhkungfu.ee/van-gioi-doc-ton"},{"_id":940,"name":"Võ Thần Chúa Tể","origin_name":"Wu Shen Zhu Zai","slug":"vo-than-chua-te","poster_url":"https://hhkungfu.ee/wp-content/uploads/2025/03/Vo-Than-Chua-Te-300x450.webp","thumb_url":"https://hhkungfu.ee/wp-content/uploads/2025/03/Vo-Than-Chua-Te-300x450.webp","quality":"FULL HD","episode_current":"Tập 658/720 [4K]","content":"","type":"series","status":"ongoing","time":"","lang":"Vietsub","category":[],"country":[{"_id":1,"name":"Trung Quốc","slug":"trung-quoc"}],"source":"hhkungfu","source_url":"https://hhkungfu.ee/vo-than-chua-te"},{"_id":12537,"name":"Xuyên Không Thành Tiên Đế, Hệ Thống Đến Muộn Tám Vạn Năm","origin_name":"Traveling Through Time To Become An Immortal Emperor, The System Arrives 80,000 Years Late","slug":"xuyen-khong-thanh-tien-de-he-thong-den-muon-tam-van-nam","poster_url":"https://hhkungfu.ee/wp-content/uploads/2026/05/Xuyen-Khong-Thanh-Tien-De-He-Thong-Den-Muon-Tam-Van-Nam-300x450.webp","thumb_url":"https://hhkungfu.ee/wp-content/uploads/2026/05/Xuyen-Khong-Thanh-Tien-De-He-Thong-Den-Muon-Tam-Van-Nam-300x450.webp","quality":"FULL HD 4K","episode_current":"Tập 16~20/40 [4K]","content":"","type":"series","status":"ongoing","time":"","lang":"Vietsub","category":[],"country":[{"_id":1,"name":"Trung Quốc","slug":"trung-quoc"}],"source":"hhkungfu","source_url":"https://hhkungfu.ee/xuyen-khong-thanh-tien-de-he-thong-den-muon-tam-van-nam"},{"_id":895,"name":"Tuyệt Thế Chiến Hồn 3D","origin_name":"Peerless Soul 3D","slug":"tuyet-the-chien-hon-3d","poster_url":"https://hhkungfu.ee/wp-content/uploads/2025/03/Tuyet-The-Chien-Hon-3D-300x450.webp","thumb_url":"https://hhkungfu.ee/wp-content/uploads/2025/03/Tuyet-The-Chien-Hon-3D-300x450.webp","quality":"FULL HD","episode_current":"Tập 178 [4K]","content":"","type":"series","status":"ongoing","time":"","lang":"Vietsub","category":[],"country":[{"_id":1,"name":"Trung Quốc","slug":"trung-quoc"}],"source":"hhkungfu","source_url":"https://hhkungfu.ee/tuyet-the-chien-hon-3d"},{"_id":10191,"name":"Đạo Yêu Hành","origin_name":"Aliens Among Immortals","slug":"dao-yeu-hanh","poster_url":"https://hhkungfu.ee/wp-content/uploads/2026/03/Dao-Yeu-Hanh-300x450.webp","thumb_url":"https://hhkungfu.ee/wp-content/uploads/2026/03/Dao-Yeu-Hanh-300x450.webp","quality":"FULL HD 4K","episode_current":"Tập 28","content":"","type":"series","status":"ongoing","time":"","lang":"Vietsub","category":[],"country":[{"_id":1,"name":"Trung Quốc","slug":"trung-quoc"}],"source":"hhkungfu","source_url":"https://hhkungfu.ee/dao-yeu-hanh"},{"_id":991,"name":"Tiên Nghịch","origin_name":"Xian Ni","slug":"tien-nghich","poster_url":"https://hhkungfu.ee/wp-content/uploads/2025/03/Tien-Nghich-300x450.webp","thumb_url":"https://hhkungfu.ee/wp-content/uploads/2025/03/Tien-Nghich-300x450.webp","quality":"FULL HD","episode_current":"Tập 141/180 [4K]","content":"","type":"series","status":"ongoing","time":"","lang":"Vietsub","category":[],"country":[{"_id":1,"name":"Trung Quốc","slug":"trung-quoc"}],"source":"hhkungfu","source_url":"https://hhkungfu.ee/tien-nghich"},{"_id":11462,"name":"Đại Đạo Độc Hành","origin_name":"Walking the Way All Alone","slug":"dai-dao-doc-hanh","poster_url":"https://hhkungfu.ee/wp-content/uploads/2026/04/Dai-Dao-Doc-Hanh-300x450.webp","thumb_url":"https://hhkungfu.ee/wp-content/uploads/2026/04/Dai-Dao-Doc-Hanh-300x450.webp","quality":"FULL HD 4K","episode_current":"Tập 8 [4K]","content":"","type":"series","status":"ongoing","time":"","lang":"Vietsub","category":[],"country":[{"_id":1,"name":"Trung Quốc","slug":"trung-quoc"}],"source":"hhkungfu","source_url":"https://hhkungfu.ee/dai-dao-doc-hanh"},{"_id":9079,"name":"Lão Tổ Luyện Thể Mạnh Nhất Lịch Sử","origin_name":"The Supreme Body Refining Master","slug":"lao-to-luyen-the-manh-nhat-lich-su","poster_url":"https://hhkungfu.ee/wp-content/uploads/2026/01/Lao-To-Luyen-The-Manh-Nhat-Lich-Su-300x450.webp","thumb_url":"https://hhkungfu.ee/wp-content/uploads/2026/01/Lao-To-Luyen-The-Manh-Nhat-Lich-Su-300x450.webp","quality":"FULL HD 4K","episode_current":"Tập 40/40 [4K]","content":"","type":"series","status":"ongoing","time":"","lang":"Vietsub","category":[],"country":[{"_id":1,"name":"Trung Quốc","slug":"trung-quoc"}],"source":"hhkungfu","source_url":"https://hhkungfu.ee/lao-to-luyen-the-manh-nhat-lich-su"},{"_id":967,"name":"Vô Thượng Thần Đế","origin_name":"Wu Shang Shen Di","slug":"vo-thuong-than-de","poster_url":"https://hhkungfu.ee/wp-content/uploads/2025/03/Vo-Thuong-Than-De-300x450.webp","thumb_url":"https://hhkungfu.ee/wp-content/uploads/2025/03/Vo-Thuong-Than-De-300x450.webp","quality":"FULL HD","episode_current":"Tập 606/632 [4K]","content":"","type":"series","status":"ongoing","time":"","lang":"Vietsub","category":[],"country":[{"_id":1,"name":"Trung Quốc","slug":"trung-quoc"}],"source":"hhkungfu","source_url":"https://hhkungfu.ee/vo-thuong-than-de"},{"_id":982,"name":"Nghịch Thiên Chí Tôn","origin_name":"Ni Tian Zhi Zun","slug":"nghich-thien-chi-ton","poster_url":"https://hhkungfu.ee/wp-content/uploads/2025/03/Nghich-Thien-Chi-Ton-300x450.webp","thumb_url":"https://hhkungfu.ee/wp-content/uploads/2025/03/Nghich-Thien-Chi-Ton-300x450.webp","quality":"FULL HD","episode_current":"Tập 515/580 [4K]","content":"","type":"series","status":"ongoing","time":"","lang":"Vietsub","category":[],"country":[{"_id":1,"name":"Trung Quốc","slug":"trung-quoc"}],"source":"hhkungfu","source_url":"https://hhkungfu.ee/nghich-thien-chi-ton"},{"_id":976,"name":"Đại Lục Linh Võ","origin_name":"Lingwu Continent","slug":"dai-luc-linh-vo","poster_url":"https://hhkungfu.ee/wp-content/uploads/2025/03/Dai-Luc-Linh-Vo-300x450.webp","thumb_url":"https://hhkungfu.ee/wp-content/uploads/2025/03/Dai-Luc-Linh-Vo-300x450.webp","quality":"FULL HD","episode_current":"Tập 179 [4K]","content":"","type":"series","status":"ongoing","time":"","lang":"Vietsub","category":[],"country":[{"_id":1,"name":"Trung Quốc","slug":"trung-quoc"}],"source":"hhkungfu","source_url":"https://hhkungfu.ee/dai-luc-linh-vo"},{"_id":1036,"name":"Mục Thần Ký","origin_name":"Mu Shen Ji","slug":"muc-than-ky","poster_url":"https://hhkungfu.ee/wp-content/uploads/2025/03/Muc-Than-Ky-12-hhkungfu-300x450.webp","thumb_url":"https://hhkungfu.ee/wp-content/uploads/2025/03/Muc-Than-Ky-12-hhkungfu-300x450.webp","quality":"FULL HD","episode_current":"Tập 83 [4K]","content":"","type":"series","status":"ongoing","time":"","lang":"Vietsub","category":[],"country":[{"_id":1,"name":"Trung Quốc","slug":"trung-quoc"}],"source":"hhkungfu","source_url":"https://hhkungfu.ee/muc-than-ky"},{"_id":949,"name":"Đấu Phá Thương Khung Phần 5","origin_name":"Fights Break Sphere 5","slug":"dau-pha-thuong-khung-phan-5","poster_url":"https://hhkungfu.ee/wp-content/uploads/2025/03/Dau-Pha-Thuong-Khung-Phan-5-300x450.webp","thumb_url":"https://hhkungfu.ee/wp-content/uploads/2025/03/Dau-Pha-Thuong-Khung-Phan-5-300x450.webp","quality":"FULL HD 4K","episode_current":"Tập 199/209 [4K]","content":"","type":"series","status":"ongoing","time":"","lang":"Vietsub","category":[],"country":[{"_id":1,"name":"Trung Quốc","slug":"trung-quoc"}],"source":"hhkungfu","source_url":"https://hhkungfu.ee/dau-pha-thuong-khung-phan-5"},{"_id":7967,"name":"Quang Âm Chi Ngoại","origin_name":"Read Outside of Time","slug":"quang-am-chi-ngoai","poster_url":"https://hhkungfu.ee/wp-content/uploads/2025/12/Quang-Am-Chi-Ngoai-1-300x450.webp","thumb_url":"https://hhkungfu.ee/wp-content/uploads/2025/12/Quang-Am-Chi-Ngoai-1-300x450.webp","quality":"Full HD 4K","episode_current":"Tập 22/26 [4K]","content":"","type":"series","status":"ongoing","time":"","lang":"Vietsub","category":[],"country":[{"_id":1,"name":"Trung Quốc","slug":"trung-quoc"}],"source":"hhkungfu","source_url":"https://hhkungfu.ee/quang-am-chi-ngoai"},{"_id":12250,"name":"Tôi Nộp Tận Thế Cho Quốc Gia","origin_name":"Project Spark","slug":"toi-nop-tan-the-cho-quoc-gia","poster_url":"https://hhkungfu.ee/wp-content/uploads/2026/04/Toi-Nop-Tan-The-Cho-Quoc-Gia-300x450.webp","thumb_url":"https://hhkungfu.ee/wp-content/uploads/2026/04/Toi-Nop-Tan-The-Cho-Quoc-Gia-300x450.webp","quality":"FULL HD 4K","episode_current":"Tập 14~17/40 [4K]","content":"","type":"series","status":"ongoing","time":"","lang":"Vietsub","category":[],"country":[{"_id":1,"name":"Trung Quốc","slug":"trung-quoc"}],"source":"hhkungfu","source_url":"https://hhkungfu.ee/toi-nop-tan-the-cho-quoc-gia"}],"pagination":{"totalItems":624,"totalItemsPerPage":24,"currentPage":1,"totalPages":26}}
